numero;nom;prenom;sexe;telephone;dateNaissance;adresse;email
20160000;Stark;Tony;M;0123456789;1997-01-27;35 Rue du Soleil Limoges;tony.stark@etu.unilim.fr
20160001;Banner;Bruce;M;0234567891;1996-08-15;7 Avenue Azerty Limoges;bruce.banner@etu.unilim.fr
20160002;Granger;Hermione;F;0345678912;1998-12-05;63bis Boulevard Bel Air Limoges;hermione.granger@etu.unilim.fr